%TF.GenerationSoftware,KiCad,Pcbnew,7.0.9+dfsg-1*%
%TF.CreationDate,2023-12-13T14:58:08+01:00*%
%TF.ProjectId,pre-amp,7072652d-616d-4702-9e6b-696361645f70,rev?*%
%TF.SameCoordinates,Original*%
%TF.FileFunction,Soldermask,Bot*%
%TF.FilePolarity,Negative*%
%FSLAX46Y46*%
G04 Gerber Fmt 4.6, Leading zero omitted, Abs format (unit mm)*
G04 Created by KiCad (PCBNEW 7.0.9+dfsg-1) date 2023-12-13 14:58:08*
%MOMM*%
%LPD*%
G01*
G04 APERTURE LIST*
G04 Aperture macros list*
%AMRoundRect*
0 Rectangle with rounded corners*
0 $1 Rounding radius*
0 $2 $3 $4 $5 $6 $7 $8 $9 X,Y pos of 4 corners*
0 Add a 4 corners polygon primitive as box body*
4,1,4,$2,$3,$4,$5,$6,$7,$8,$9,$2,$3,0*
0 Add four circle primitives for the rounded corners*
1,1,$1+$1,$2,$3*
1,1,$1+$1,$4,$5*
1,1,$1+$1,$6,$7*
1,1,$1+$1,$8,$9*
0 Add four rect primitives between the rounded corners*
20,1,$1+$1,$2,$3,$4,$5,0*
20,1,$1+$1,$4,$5,$6,$7,0*
20,1,$1+$1,$6,$7,$8,$9,0*
20,1,$1+$1,$8,$9,$2,$3,0*%
G04 Aperture macros list end*
%ADD10R,1.400000X1.400000*%
%ADD11C,1.400000*%
%ADD12R,2.400000X1.600000*%
%ADD13O,2.400000X1.600000*%
%ADD14O,7.000000X3.500000*%
%ADD15RoundRect,0.400000X-0.400000X0.400000X-0.400000X-0.400000X0.400000X-0.400000X0.400000X0.400000X0*%
%ADD16C,1.600000*%
%ADD17RoundRect,0.250000X0.600000X0.725000X-0.600000X0.725000X-0.600000X-0.725000X0.600000X-0.725000X0*%
%ADD18O,1.700000X1.950000*%
%ADD19RoundRect,0.400000X0.400000X-0.400000X0.400000X0.400000X-0.400000X0.400000X-0.400000X-0.400000X0*%
%ADD20RoundRect,0.250000X-0.250000X-0.475000X0.250000X-0.475000X0.250000X0.475000X-0.250000X0.475000X0*%
%ADD21RoundRect,0.250000X-0.262500X-0.450000X0.262500X-0.450000X0.262500X0.450000X-0.262500X0.450000X0*%
%ADD22RoundRect,0.250000X-0.475000X0.250000X-0.475000X-0.250000X0.475000X-0.250000X0.475000X0.250000X0*%
G04 APERTURE END LIST*
D10*
%TO.C,SW1*%
X144145000Y-122435000D03*
D11*
X144145000Y-119935000D03*
X144145000Y-117435000D03*
X147445000Y-122435000D03*
X147445000Y-119935000D03*
X147445000Y-117435000D03*
%TD*%
D12*
%TO.C,U1*%
X168275000Y-114300000D03*
D13*
X168275000Y-116840000D03*
X168275000Y-119380000D03*
X168275000Y-121920000D03*
X175895000Y-121920000D03*
X175895000Y-119380000D03*
X175895000Y-116840000D03*
X175895000Y-114300000D03*
%TD*%
D14*
%TO.C,J2*%
X226060000Y-96520000D03*
X225960000Y-106680000D03*
D15*
X217170000Y-101600000D03*
D16*
X217170000Y-99060000D03*
X219710000Y-101600000D03*
X217170000Y-104140000D03*
%TD*%
D12*
%TO.C,U4*%
X157480000Y-99060000D03*
D13*
X157480000Y-101600000D03*
X157480000Y-104140000D03*
X157480000Y-106680000D03*
X165100000Y-106680000D03*
X165100000Y-104140000D03*
X165100000Y-101600000D03*
X165100000Y-99060000D03*
%TD*%
D12*
%TO.C,U3*%
X220345000Y-114300000D03*
D13*
X220345000Y-116840000D03*
X220345000Y-119380000D03*
X220345000Y-121920000D03*
X227965000Y-121920000D03*
X227965000Y-119380000D03*
X227965000Y-116840000D03*
X227965000Y-114300000D03*
%TD*%
D12*
%TO.C,U2*%
X195580000Y-114300000D03*
D13*
X195580000Y-116840000D03*
X195580000Y-119380000D03*
X195580000Y-121920000D03*
X203200000Y-121920000D03*
X203200000Y-119380000D03*
X203200000Y-116840000D03*
X203200000Y-114300000D03*
%TD*%
D17*
%TO.C,J3 // -15V GND +15V *%
X170180000Y-91440000D03*
D18*
X167680000Y-91440000D03*
X165180000Y-91440000D03*
%TD*%
D14*
%TO.C,J1*%
X129440000Y-106680000D03*
X129540000Y-96520000D03*
D19*
X138330000Y-101600000D03*
D16*
X138330000Y-104140000D03*
X135790000Y-101600000D03*
X138330000Y-99060000D03*
%TD*%
D10*
%TO.C,SW2*%
X153035000Y-122475000D03*
D11*
X153035000Y-119975000D03*
X153035000Y-117475000D03*
X156335000Y-122475000D03*
X156335000Y-119975000D03*
X156335000Y-117475000D03*
%TD*%
D20*
%TO.C,C5*%
X198440000Y-119380000D03*
X200340000Y-119380000D03*
%TD*%
%TO.C,C4*%
X171135000Y-119380000D03*
X173035000Y-119380000D03*
%TD*%
D21*
%TO.C,R9*%
X222965000Y-123190000D03*
X224790000Y-123190000D03*
%TD*%
%TO.C,R7*%
X170895000Y-123190000D03*
X172720000Y-123190000D03*
%TD*%
%TO.C,R8*%
X198200000Y-123190000D03*
X200025000Y-123190000D03*
%TD*%
D20*
%TO.C,C6*%
X223205000Y-119380000D03*
X225105000Y-119380000D03*
%TD*%
D22*
%TO.C,C12*%
X161290000Y-102240000D03*
X161290000Y-104140000D03*
%TD*%
M02*
