M48
; DRILL file {KiCad 7.0.9+dfsg-1} date Wed 13 Dec 2023 02:58:02 PM CET
; FORMAT={-:-/ absolute / inch / decimal}
; #@! TF.CreationDate,2023-12-13T14:58:02+01:00
; #@! TF.GenerationSoftware,Kicad,Pcbnew,7.0.9+dfsg-1
; #@! TF.FileFunction,Plated,1,2,PTH
FMAT,2
INCH
; #@! TA.AperFunction,Plated,PTH,ViaDrill
T1C0.0157
; #@! TA.AperFunction,Plated,PTH,ComponentDrill
T2C0.0315
; #@! TA.AperFunction,Plated,PTH,ComponentDrill
T3C0.0350
; #@! TA.AperFunction,Plated,PTH,ComponentDrill
T4C0.0354
; #@! TA.AperFunction,Plated,PTH,ComponentDrill
T5C0.0374
; #@! TA.AperFunction,Plated,PTH,ComponentDrill
T6C0.0791
%
G90
G05
T1
X5.55Y-5.075
X5.95Y-4.75
X5.975Y-3.6
X5.975Y-4.4
X6.025Y-4.475
X6.3Y-4.325
X6.3Y-5.15
X6.325Y-3.95
X6.35Y-4.175
X6.55Y-3.775
X6.65Y-4.275
X6.675Y-4.075
X6.675Y-5.725
X6.7Y-5.15
X6.8Y-3.825
X6.875Y-3.6
X6.9Y-4.25
X7.05Y-4.575
X7.1Y-4.95
X7.275Y-5.15
X7.375Y-3.5
X7.375Y-4.95
X8.1Y-4.7
X8.275Y-4.75
X8.45Y-4.8
X8.85Y-4.925
T2
X6.2Y-3.9
X6.2Y-4.0
X6.2Y-4.1
X6.2Y-4.2
X6.5Y-3.9
X6.5Y-4.0
X6.5Y-4.1
X6.5Y-4.2
X6.625Y-4.5
X6.625Y-4.6
X6.625Y-4.7
X6.625Y-4.8
X6.925Y-4.5
X6.925Y-4.6
X6.925Y-4.7
X6.925Y-4.8
X7.7Y-4.5
X7.7Y-4.6
X7.7Y-4.7
X7.7Y-4.8
X8.0Y-4.5
X8.0Y-4.6
X8.0Y-4.7
X8.0Y-4.8
X8.675Y-4.5
X8.675Y-4.6
X8.675Y-4.7
X8.675Y-4.8
X8.975Y-4.5
X8.975Y-4.6
X8.975Y-4.7
X8.975Y-4.8
T3
X5.3461Y-4.0
X5.4461Y-3.9
X5.4461Y-4.0
X5.4461Y-4.1
X8.55Y-3.9
X8.55Y-4.0
X8.55Y-4.1
X8.65Y-4.0
T4
X5.675Y-4.6234
X5.675Y-4.7219
X5.675Y-4.8203
X5.8049Y-4.6234
X5.8049Y-4.7219
X5.8049Y-4.8203
X6.025Y-4.625
X6.025Y-4.7234
X6.025Y-4.8219
X6.1549Y-4.625
X6.1549Y-4.7234
X6.1549Y-4.8219
T5
X6.5031Y-3.6
X6.6016Y-3.6
X6.7Y-3.6
T6
X5.0961Y-4.2
X5.1Y-3.8
X8.8961Y-4.2
X8.9Y-3.8
T0
M30
